EvolveAGene 4.0
Wed Dec  5 18:47:47 2018

The root sequence came from file 32_taxa_5_brlen/ebacter_recombinase.txt.


The settings for this simulation were:
Option 1	Topology: Symmetric
Option 2	Number of taxa: 32
Option 3	Average branch length: 5
Option 4	Average probability of accepting an amino acid replacement: 0.1
Option 5	Probability of accepting an insertion: 0.1
Option 6	Probability of accepting a deletion: 0.025
Option 7	Selection over sequence is: constant
Option 8	Selection over branches is: constant
Option 9	modifier: 1
Option 10	Alignment file format is: FASTA
Option 11	Ratio of recombination to mutation events is: 0
Option 12	Length of the recombination tract (fraction of genome length) is: 0.01
Option 13	Probability of recombination coming from outside is: 0.01

Branch	Left	Right	Branch Length
1		1	2	2098
2		1	17	2125
3		2	3	563
4		2	10	1846
5		3	4	1660
6		3	7	1549
7		4	5	1208
8		4	6	709
9		5	A1	364
10		5	A2	1101
11		6	A3	1201
12		6	A4	1435
13		7	8	1450
14		7	9	299
15		8	A5	1362
16		8	A6	1977
17		9	A7	224
18		9	A8	856
19		10	11	1800
20		10	14	555
21		11	12	1497
22		11	13	491
23		12	A9	235
24		12	A10	665
25		13	A11	159
26		13	A12	98
27		14	15	442
28		14	16	825
29		15	A13	112
30		15	A14	125
31		16	A15	1921
32		16	A16	126
33		17	18	521
34		17	25	342
35		18	19	1980
36		18	22	90
37		19	20	2004
38		19	21	214
39		20	A17	1332
40		20	A18	535
41		21	A19	1398
42		21	A20	1691
43		22	23	1576
44		22	24	1337
45		23	A21	1921
46		23	A22	980
47		24	A23	593
48		24	A24	930
49		25	26	184
50		25	29	136
51		26	27	1459
52		26	28	2043
53		27	A25	654
54		27	A26	407
55		28	A27	91
56		28	A28	435
57		29	30	368
58		29	31	1681
59		30	A29	1925
60		30	A30	971
61		31	A31	458
62		31	A32	1721

On branch 1 there were 1583 silent and 507 replacement mutations, 2 deletions and 6 insertions.
On branch 2 there were 1633 silent and 479 replacement mutations, 0 deletions and 13 insertions.
On branch 3 there were 416 silent and 146 replacement mutations, 0 deletions and 1 insertions.
On branch 4 there were 1415 silent and 421 replacement mutations, 2 deletions and 8 insertions.
On branch 5 there were 1262 silent and 392 replacement mutations, 3 deletions and 3 insertions.
On branch 6 there were 1211 silent and 334 replacement mutations, 1 deletions and 3 insertions.
On branch 7 there were 933 silent and 272 replacement mutations, 2 deletions and 1 insertions.
On branch 8 there were 553 silent and 153 replacement mutations, 1 deletions and 2 insertions.
On branch 9 there were 273 silent and 90 replacement mutations, 1 deletions and 0 insertions.
On branch 10 there were 839 silent and 261 replacement mutations, 0 deletions and 1 insertions.
On branch 11 there were 930 silent and 270 replacement mutations, 0 deletions and 1 insertions.
On branch 12 there were 1076 silent and 356 replacement mutations, 1 deletions and 2 insertions.
On branch 13 there were 1133 silent and 316 replacement mutations, 1 deletions and 0 insertions.
On branch 14 there were 232 silent and 67 replacement mutations, 0 deletions and 0 insertions.
On branch 15 there were 1034 silent and 324 replacement mutations, 0 deletions and 4 insertions.
On branch 16 there were 1542 silent and 428 replacement mutations, 2 deletions and 5 insertions.
On branch 17 there were 178 silent and 46 replacement mutations, 0 deletions and 0 insertions.
On branch 18 there were 643 silent and 212 replacement mutations, 0 deletions and 1 insertions.
On branch 19 there were 1383 silent and 412 replacement mutations, 3 deletions and 2 insertions.
On branch 20 there were 417 silent and 138 replacement mutations, 0 deletions and 0 insertions.
On branch 21 there were 1178 silent and 317 replacement mutations, 1 deletions and 1 insertions.
On branch 22 there were 354 silent and 137 replacement mutations, 0 deletions and 0 insertions.
On branch 23 there were 191 silent and 43 replacement mutations, 0 deletions and 1 insertions.
On branch 24 there were 512 silent and 151 replacement mutations, 1 deletions and 1 insertions.
On branch 25 there were 114 silent and 44 replacement mutations, 0 deletions and 1 insertions.
On branch 26 there were 72 silent and 26 replacement mutations, 0 deletions and 0 insertions.
On branch 27 there were 345 silent and 96 replacement mutations, 1 deletions and 0 insertions.
On branch 28 there were 621 silent and 204 replacement mutations, 0 deletions and 0 insertions.
On branch 29 there were 90 silent and 21 replacement mutations, 0 deletions and 1 insertions.
On branch 30 there were 87 silent and 37 replacement mutations, 0 deletions and 1 insertions.
On branch 31 there were 1487 silent and 424 replacement mutations, 1 deletions and 9 insertions.
On branch 32 there were 93 silent and 32 replacement mutations, 0 deletions and 1 insertions.
On branch 33 there were 423 silent and 97 replacement mutations, 1 deletions and 0 insertions.
On branch 34 there were 266 silent and 75 replacement mutations, 1 deletions and 0 insertions.
On branch 35 there were 1511 silent and 462 replacement mutations, 2 deletions and 5 insertions.
On branch 36 there were 73 silent and 17 replacement mutations, 0 deletions and 0 insertions.
On branch 37 there were 1545 silent and 456 replacement mutations, 1 deletions and 2 insertions.
On branch 38 there were 162 silent and 51 replacement mutations, 1 deletions and 0 insertions.
On branch 39 there were 1037 silent and 290 replacement mutations, 3 deletions and 2 insertions.
On branch 40 there were 416 silent and 118 replacement mutations, 0 deletions and 1 insertions.
On branch 41 there were 1061 silent and 332 replacement mutations, 0 deletions and 5 insertions.
On branch 42 there were 1310 silent and 379 replacement mutations, 1 deletions and 1 insertions.
On branch 43 there were 1224 silent and 347 replacement mutations, 2 deletions and 3 insertions.
On branch 44 there were 1024 silent and 309 replacement mutations, 0 deletions and 4 insertions.
On branch 45 there were 1460 silent and 456 replacement mutations, 3 deletions and 2 insertions.
On branch 46 there were 764 silent and 211 replacement mutations, 3 deletions and 2 insertions.
On branch 47 there were 462 silent and 131 replacement mutations, 0 deletions and 0 insertions.
On branch 48 there were 707 silent and 218 replacement mutations, 2 deletions and 3 insertions.
On branch 49 there were 134 silent and 50 replacement mutations, 0 deletions and 0 insertions.
On branch 50 there were 108 silent and 28 replacement mutations, 0 deletions and 0 insertions.
On branch 51 there were 1109 silent and 346 replacement mutations, 1 deletions and 3 insertions.
On branch 52 there were 1559 silent and 477 replacement mutations, 2 deletions and 5 insertions.
On branch 53 there were 511 silent and 142 replacement mutations, 0 deletions and 1 insertions.
On branch 54 there were 295 silent and 112 replacement mutations, 0 deletions and 0 insertions.
On branch 55 there were 63 silent and 28 replacement mutations, 0 deletions and 0 insertions.
On branch 56 there were 339 silent and 94 replacement mutations, 1 deletions and 1 insertions.
On branch 57 there were 276 silent and 92 replacement mutations, 0 deletions and 0 insertions.
On branch 58 there were 1289 silent and 387 replacement mutations, 1 deletions and 4 insertions.
On branch 59 there were 1500 silent and 421 replacement mutations, 0 deletions and 4 insertions.
On branch 60 there were 764 silent and 204 replacement mutations, 0 deletions and 3 insertions.
On branch 61 there were 367 silent and 90 replacement mutations, 0 deletions and 1 insertions.
On branch 62 there were 1299 silent and 412 replacement mutations, 4 deletions and 6 insertions.

There were a total of 46888 silent and 13988 replacement base substitutions.

There were 0 recombinations and 61055 mutations.
True rho/theta is 0.
True r/m is undefined because there were no recombinations.

dN/dS (also known as Ka/Ks or Omega) = 0.0887

Kappa (ts/tv) = 0.9730

Fraction of base substitutions in each category:
A<->G = 0.2054
A<->C = 0.1781
A<->T = 0.1703
C<->G = 0.0171
C<->T = 0.2878
G<->T = 0.1414


There were a total of 52 deletions and 127 insertions.

Cartright's lambda is the ratio of indels to base substitutions.
Lambda = 0.0029. (Cartwright, R.A. 2005.  Bioinformatics 21 Suppl 3 iii31 - iii38)


The tree length is 286.6432.

The mean branch length was 4.6233 

Simulation took 198 seconds.

