EvolveAGene 4.0
Wed Dec  5 18:28:24 2018

The root sequence came from file 32_taxa_10_brlen/ebacter_recombinase.txt.


The settings for this simulation were:
Option 1	Topology: Symmetric
Option 2	Number of taxa: 32
Option 3	Average branch length: 10
Option 4	Average probability of accepting an amino acid replacement: 0.1
Option 5	Probability of accepting an insertion: 0.1
Option 6	Probability of accepting a deletion: 0.025
Option 7	Selection over sequence is: constant
Option 8	Selection over branches is: constant
Option 9	modifier: 1
Option 10	Alignment file format is: FASTA
Option 11	Ratio of recombination to mutation events is: 0
Option 12	Length of the recombination tract (fraction of genome length) is: 0.01
Option 13	Probability of recombination coming from outside is: 0.01

Branch	Left	Right	Branch Length
1		1	2	757
2		1	17	3830
3		2	3	1699
4		2	10	3518
5		3	4	2804
6		3	7	4162
7		4	5	2979
8		4	6	3008
9		5	A1	3265
10		5	A2	2233
11		6	A3	802
12		6	A4	3483
13		7	8	4123
14		7	9	3908
15		8	A5	825
16		8	A6	4173
17		9	A7	320
18		9	A8	2779
19		10	11	3722
20		10	14	1008
21		11	12	3341
22		11	13	562
23		12	A9	897
24		12	A10	3997
25		13	A11	2545
26		13	A12	2633
27		14	15	3874
28		14	16	580
29		15	A13	13
30		15	A14	3621
31		16	A15	1587
32		16	A16	1078
33		17	18	2758
34		17	25	187
35		18	19	2208
36		18	22	32
37		19	20	3543
38		19	21	872
39		20	A17	2707
40		20	A18	2648
41		21	A19	2539
42		21	A20	1223
43		22	23	194
44		22	24	1929
45		23	A21	862
46		23	A22	3366
47		24	A23	618
48		24	A24	3461
49		25	26	2430
50		25	29	1708
51		26	27	3882
52		26	28	1246
53		27	A25	2957
54		27	A26	4156
55		28	A27	2263
56		28	A28	4118
57		29	30	545
58		29	31	2031
59		30	A29	1068
60		30	A30	2029
61		31	A31	2560
62		31	A32	3242

On branch 1 there were 590 silent and 164 replacement mutations, 1 deletions and 2 insertions.
On branch 2 there were 2897 silent and 911 replacement mutations, 8 deletions and 14 insertions.
On branch 3 there were 1276 silent and 417 replacement mutations, 1 deletions and 5 insertions.
On branch 4 there were 2728 silent and 778 replacement mutations, 6 deletions and 6 insertions.
On branch 5 there were 2208 silent and 588 replacement mutations, 1 deletions and 7 insertions.
On branch 6 there were 3183 silent and 967 replacement mutations, 2 deletions and 10 insertions.
On branch 7 there were 2299 silent and 673 replacement mutations, 2 deletions and 5 insertions.
On branch 8 there were 2264 silent and 738 replacement mutations, 4 deletions and 2 insertions.
On branch 9 there were 2543 silent and 718 replacement mutations, 1 deletions and 3 insertions.
On branch 10 there were 1691 silent and 532 replacement mutations, 6 deletions and 4 insertions.
On branch 11 there were 622 silent and 179 replacement mutations, 0 deletions and 1 insertions.
On branch 12 there were 2628 silent and 840 replacement mutations, 3 deletions and 12 insertions.
On branch 13 there were 3185 silent and 926 replacement mutations, 5 deletions and 7 insertions.
On branch 14 there were 2981 silent and 917 replacement mutations, 6 deletions and 4 insertions.
On branch 15 there were 627 silent and 194 replacement mutations, 1 deletions and 3 insertions.
On branch 16 there were 3169 silent and 988 replacement mutations, 2 deletions and 14 insertions.
On branch 17 there were 237 silent and 82 replacement mutations, 0 deletions and 1 insertions.
On branch 18 there were 2109 silent and 662 replacement mutations, 3 deletions and 5 insertions.
On branch 19 there were 2879 silent and 838 replacement mutations, 1 deletions and 4 insertions.
On branch 20 there were 782 silent and 223 replacement mutations, 1 deletions and 2 insertions.
On branch 21 there were 2556 silent and 778 replacement mutations, 1 deletions and 6 insertions.
On branch 22 there were 420 silent and 141 replacement mutations, 0 deletions and 1 insertions.
On branch 23 there were 683 silent and 212 replacement mutations, 1 deletions and 1 insertions.
On branch 24 there were 3094 silent and 896 replacement mutations, 2 deletions and 5 insertions.
On branch 25 there were 1929 silent and 610 replacement mutations, 3 deletions and 3 insertions.
On branch 26 there were 2034 silent and 592 replacement mutations, 2 deletions and 5 insertions.
On branch 27 there were 3011 silent and 855 replacement mutations, 5 deletions and 3 insertions.
On branch 28 there were 442 silent and 138 replacement mutations, 0 deletions and 0 insertions.
On branch 29 there were 11 silent and 2 replacement mutations, 0 deletions and 0 insertions.
On branch 30 there were 2763 silent and 849 replacement mutations, 1 deletions and 8 insertions.
On branch 31 there were 1215 silent and 368 replacement mutations, 1 deletions and 3 insertions.
On branch 32 there were 821 silent and 256 replacement mutations, 1 deletions and 0 insertions.
On branch 33 there were 2125 silent and 625 replacement mutations, 1 deletions and 7 insertions.
On branch 34 there were 140 silent and 47 replacement mutations, 0 deletions and 0 insertions.
On branch 35 there were 1691 silent and 512 replacement mutations, 0 deletions and 5 insertions.
On branch 36 there were 22 silent and 10 replacement mutations, 0 deletions and 0 insertions.
On branch 37 there were 2766 silent and 767 replacement mutations, 0 deletions and 10 insertions.
On branch 38 there were 675 silent and 196 replacement mutations, 1 deletions and 0 insertions.
On branch 39 there were 2078 silent and 625 replacement mutations, 0 deletions and 4 insertions.
On branch 40 there were 2044 silent and 598 replacement mutations, 2 deletions and 4 insertions.
On branch 41 there were 1941 silent and 593 replacement mutations, 1 deletions and 4 insertions.
On branch 42 there were 926 silent and 296 replacement mutations, 0 deletions and 1 insertions.
On branch 43 there were 143 silent and 50 replacement mutations, 0 deletions and 1 insertions.
On branch 44 there were 1497 silent and 427 replacement mutations, 0 deletions and 5 insertions.
On branch 45 there were 659 silent and 202 replacement mutations, 0 deletions and 1 insertions.
On branch 46 there were 2603 silent and 752 replacement mutations, 2 deletions and 9 insertions.
On branch 47 there were 476 silent and 139 replacement mutations, 1 deletions and 2 insertions.
On branch 48 there were 2651 silent and 801 replacement mutations, 4 deletions and 5 insertions.
On branch 49 there were 1880 silent and 546 replacement mutations, 0 deletions and 4 insertions.
On branch 50 there were 1339 silent and 364 replacement mutations, 1 deletions and 4 insertions.
On branch 51 there were 2973 silent and 900 replacement mutations, 3 deletions and 6 insertions.
On branch 52 there were 934 silent and 308 replacement mutations, 1 deletions and 3 insertions.
On branch 53 there were 2253 silent and 697 replacement mutations, 2 deletions and 5 insertions.
On branch 54 there were 3148 silent and 1002 replacement mutations, 0 deletions and 6 insertions.
On branch 55 there were 1714 silent and 546 replacement mutations, 0 deletions and 3 insertions.
On branch 56 there were 3118 silent and 991 replacement mutations, 3 deletions and 6 insertions.
On branch 57 there were 410 silent and 133 replacement mutations, 0 deletions and 2 insertions.
On branch 58 there were 1587 silent and 442 replacement mutations, 1 deletions and 1 insertions.
On branch 59 there were 814 silent and 252 replacement mutations, 0 deletions and 2 insertions.
On branch 60 there were 1562 silent and 461 replacement mutations, 1 deletions and 5 insertions.
On branch 61 there were 1991 silent and 566 replacement mutations, 1 deletions and 2 insertions.
On branch 62 there were 2436 silent and 800 replacement mutations, 4 deletions and 2 insertions.

There were a total of 108473 silent and 32680 replacement base substitutions.

There were 0 recombinations and 141508 mutations.
True rho/theta is 0.
True r/m is undefined because there were no recombinations.

dN/dS (also known as Ka/Ks or Omega) = 0.0897

Kappa (ts/tv) = 0.9605

Fraction of base substitutions in each category:
A<->G = 0.2062
A<->C = 0.1793
A<->T = 0.1727
C<->G = 0.0162
C<->T = 0.2837
G<->T = 0.1418


There were a total of 100 deletions and 255 insertions.

Cartright's lambda is the ratio of indels to base substitutions.
Lambda = 0.0025. (Cartwright, R.A. 2005.  Bioinformatics 21 Suppl 3 iii31 - iii38)


The tree length is 664.3568.

The mean branch length was 10.7154 

Simulation took 1163 seconds.

